STAT545_ZacharySherker_Homework3
…
2002
53.41510

2007
54.93440

I then
calculate the number of countries with low life expectancy in each year.

c<-group_by(gapminder,year)%>%
  mutate(lowLifeExp=mean(lifeExp)-sd(lifeExp)) 
group_by(c,continent,year)%>%
  summarize(Total_lowLifeExp=sum(lifeExp<lowLifeExp))

## # A tibble: 60 x 3
## # Groups:   continent [?]
##    continent  year Total_lowLifeExp
##    <fct>     <int>            <int>
##  1 Africa     1952               17
##  2 Africa     1957               19
##  3 Africa     1962               22
##  4 Africa     1967               23
##  5 Africa     1972               25
##  6 Africa     1977               24
##  7 Africa     1982               26
##  8 Africa     1987               28
##  9 Africa     1992               27
## 10 Africa     1997               29
## # ... with 50 more rows
…
